{
	"language":  "ru",
	"port":      8080,

	"databases": {
		"default": {
			"basename":       "default",
			"user":           "root",
			"password":       "",
			"filename":       "database/main.sqlite",
			"initialization": "data/initialization/main.json"
		},
		"report": {
			"basename":       "report",
			"user":           "root",
			"password":       "",
			"filename":       "database/report.sqlite",
			"initialization": "data/initialization/report.json"
		},
		"staging": {
			"basename":       "staging",
			"user":           "root",
			"password":       "",
			"filename":       "database/staging.sqlite",
			"initialization": "data/initialization/staging.json"
		}
	},

	"initials": {
		"supported": {
			"mssql": {
				"order":        1,
				"versionFile":  "data/getversion/mssql/getversion.sql",
				"versionRegex": "(\\d+).(\\d+).(\\d+).(\\d+)"
			},
			"mysql": {
				"order":        2,
				"versionFile":  "data/getversion/mysql/getversion.sql",
				"versionRegex": "(\\d+).(\\d+).(\\d+)"
			}
		}
	}
}
