{
	"name":        "getInstanceConnections",
	"description": "active server connections",

	"extract": [
		{
			"order": 1,
			"sectionName": "getInstanceConnections",
			"file": [
				{
					"min":  "*",
					"max":  "*",
					"file": "sql/getInstanceConnections.sql"
				}
			],
			"primary key": [
				"SessionID",
				"SessionNetTransport"
			],
			"storage": "report",
			"savehistoryrecords": false,
			"parameters": [
			]
		}
	],

	"transformation": [
	],

	"load": {
		"file": "sqlite/load/getInstanceConnections.sql",
		"storage": "report",
		"attached": [
		],
		"parameters": [
		]
	},

	"component": {
		"name": "tableRawReport"
	}
}
