{
	"name":        "getInstanceDatabaseObjectsCount",
	"description": "get count of objects for database",

	"extract": [
		{
			"order": 1,
			"sectionName": "getInstanceDatabaseObjectsCount",
			"file": [
				{
					"min":  "*",
					"max":  "*",
					"file": "sql/getInstanceDatabaseObjectsCount.sql"
				}
			],
			"primary key": [
				"TypeDesc",
				"IsMSShipped"
			],
			"storage": "report",
			"savehistoryrecords": false,
			"parameters": [
				{
					"database":  "true",
					"interface": "true",
					"name":      "",
					"text":      "Database",
					"type":      "String",
					"value":     "",
					"show":      "List",
					"query": {
						"file":[
							{
								"min":  "*",
								"max":  "*",
								"file": "sql/GetListOfDatabases.sql"
							}
						],
						"columnMax":  "",
						"columnMin":  "",
						"columnName": "DatabaseName"
					}
				}
			]
		}
	],

	"transformation": [
	],

	"load": {
		"file": "sqlite/load/getInstanceDatabaseObjectsCount.sql",
		"storage": "report",
		"attached": [
		],
		"parameters": [
		]
	},

	"component": {
		"name": "tableRawReport"
	}
}
