{
	"name":        "GetListOfLogins",
	"description": "Get list of server logins",

	"extract": [
		{
			"order": 1,
			"sectionName": "GetListOfLogins",
			"file":[
				{
					"min":  "*",
					"max":  "*",
					"file": "sql/GetListOfLogins.sql"
				}
			],
			"primary key": [
				"ServerName",
				"LoginName"
			],
			"storage": "report",
			"savehistoryrecords": false,
			"parameters": [
			]
		}
	],

	"transformation": [
	],

	"load": {
		"file": "sqlite/load/GetListOfLogins.sql",
		"storage": "report",
		"attached": [
		],
		"parameters": [
		]
	},

	"component": {
		"name": "tableRawReport"
	}
}
