{
	"name":        "getXYReport",
	"description": "Report: XY Graphic",

	"extract": [
		{
			"order": 1,
			"sectionName": "getXYReport",
			"file": [
				{
					"min":  "*",
					"max":  "*",
					"file": "sql/getXYReport.sql"
				}
			],
			"primary key": [
				"someVar1",
				"someVar2"
			],
			"storage": "report",
			"savehistoryrecords": false,
			"parameters": [
			]
		}
	],

	"transformation": [
	],

	"load": {
		"file": "sqlite/load/getXYReport.sql",
		"storage": "report",
		"attached": [
		],
		"parameters": [
		]
	},

	"component": {
		"name": "graphLineReport",
		"struct": {
			"x": {
				"source": "someVar1"
			},
			"y": {
				"source": "someVar2"
			}
		}
	}
}
