[
	{
		"name": {
			"field":         "name",
			"type":          "Sequelize.TEXT",
			"allowNull":     false,
			"primaryKey":    true,
			"autoIncrement": false,
			"comment":       "name - primary key"
		},

		"value": {
			"field":         "value",
			"type":          "Sequelize.INTEGER",
			"allowNull":     true,
			"primaryKey":    false,
			"autoIncrement": false,
			"comment":       "value",
			"validate":      {
			}
		}
	}, {
		"tableName": "t_report_test_01",

		"comment": "init report test table",

		"createdAt": false,

		"updatedAt": false,

		"freezeTableName": true,

		"charset": "utf8",

		"underscored": true,

		"indexes": [
		]
	}
]
