[
	{
		"EventDateTime": {
			"field":         "EventDateTime",
			"type":          "Sequelize.DATE",
			"allowNull":     false,
			"primaryKey":    true,
			"autoIncrement": false,
			"comment":       "EventDateTime"
		},

		"InstanceConnectionId": {
			"field":         "InstanceConnectionId",
			"type":          "Sequelize.INTEGER",
			"allowNull":     false,
			"primaryKey":    true,
			"autoIncrement": false,
			"comment":       "InstanceConnectionId"
		},

		"DatabaseId": {
			"field":         "DatabaseId",
			"type":          "Sequelize.TEXT",
			"allowNull":     false,
			"primaryKey":    true,
			"autoIncrement": false,
			"comment":       "DatabaseId"
		},

		"DatabaseName": {
			"field":         "DatabaseName",
			"type":          "Sequelize.TEXT",
			"allowNull":     false,
			"primaryKey":    true,
			"autoIncrement": false,
			"comment":       "DatabaseName"
		},

		"DatabaseSizeMB": {
			"field":         "DatabaseSizeMB",
			"type":          "Sequelize.REAL",
			"allowNull":     true,
			"primaryKey":    false,
			"autoIncrement": false,
			"comment":       "DatabaseSizeMB"
		},

		"DatabaseDataSizeMB": {
			"field":         "DatabaseDataSizeMB",
			"type":          "Sequelize.REAL",
			"allowNull":     true,
			"primaryKey":    false,
			"autoIncrement": false,
			"comment":       "DatabaseDataSizeMB"
		},

		"DatabaseDataSizeUsedMB": {
			"field":         "DatabaseDataSizeUsedMB",
			"type":          "Sequelize.REAL",
			"allowNull":     true,
			"primaryKey":    false,
			"autoIncrement": false,
			"comment":       "DatabaseDataSizeMB"
		},

		"DatabaseLogSizeMB": {
			"field":         "DatabaseLogSizeMB",
			"type":          "Sequelize.REAL",
			"allowNull":     true,
			"primaryKey":    false,
			"autoIncrement": false,
			"comment":       "DatabaseLogSizeMB"
		},

		"DatabaseLogSizeUsedMB": {
			"field":         "DatabaseLogSizeUsedMB",
			"type":          "Sequelize.REAL",
			"allowNull":     true,
			"primaryKey":    false,
			"autoIncrement": false,
			"comment":       "DatabaseLogSizeUsedMB"
		}
	}, {
		"tableName": "dwh_InstanceDatabaseSize",

		"comment": "dwh sql server instance database size table (fact table)",

		"createdAt": false,

		"updatedAt": false,

		"freezeTableName": true,

		"charset": "utf8",

		"underscored": true,

		"indexes": [
			{
				"name":   "idx_dwh_InstanceDatabaseSize_EventDateTime",
				"unique": false,
				"fields": [
					"EventDateTime",
					"InstanceConnectionId"
				]
			}
		]
	}
]
