{
	"name":        "GetDataSetReport1",
	"description": "Report: DataSets1",

	"extract": [
		{
			"order": 1,
			"sectionName": "GetDataSetReport",
			"file": [
				{
					"min":  "*",
					"max":  "*",
					"file": "sql/GetDataSetReport.sql"
				}
			],
			"primary key": [
				"Name"
			],
			"storage": "report",
			"savehistoryrecords": false,
			"parameters": [
			]
		}
	],

	"transformation": [
	],

	"load": {
		"file": "sqlite/load/GetDataSetReport1.sql",
		"storage": "report",
		"attached": [
		],
		"parameters": [
		]
	},

	"component": {
		"name": "tableRawReport"
	}
}
