{
	"name":        "GetListOfDatabases",
	"description": "Get list of Databases",

	"extract": [
		{
			"order": 1,
			"sectionName": "GetListOfDatabases",
			"file": [
				{
					"min":  "*",
					"max":  "*",
					"file": "sql/GetListOfDatabases.sql"
				}
			],
			"primary key": [
				"ServerName",
				"DatabaseId"
			],
			"storage": "report",
			"savehistoryrecords": false,
			"parameters": [
			]
		}
	],

	"transformation": [
	],

	"load": {
		"file": "sqlite/load/GetListOfDatabases.sql",
		"storage": "report",
		"attached": [
		],
		"parameters": [
		]
	},

	"component": {
		"name": "tableRawReport",
		"struct": {
			"ServerName": {
				"source":      "ServerName",
				"displayName": "Server Name"
			},
			"DatabaseId": {
				"source":      "DatabaseId",
				"displayName": "Id"
			},
			"DatabaseName": {
				"source":      "DatabaseName",
				"displayName": "Name"
			},
			"DatabaseSourceName": {
				"source":      "DatabaseSourceName",
				"displayName": "Source"
			},
			"DatabaseCompatibilityLevel": {
				"source":      "DatabaseCompatibilityLevel",
				"displayName": "Compatibility"
			},
			"MasterCompatibilityLevel": {
				"source":      "MasterCompatibilityLevel",
				"displayName": "MasterCompatibility"
			},
			"DatabaseOwner": {
				"source":      "DatabaseOwner",
				"displayName": "Owner"
			},
			"DatabaseCreationDate": {
				"source":      "DatabaseCreationDate",
				"displayName": "Creation Date",
				"type":        "date",
				"format":      "dd/MM/yyyy"
			},
			"DatabaseCollation": {
				"source":      "DatabaseCollation",
				"displayName": "Collation"
			},
			"MasterCollation": {
				"source":      "MasterCollation",
				"displayName": "MasterCollation"
			},
			"DatabaseStatus": {
				"source":      "DatabaseStatus",
				"displayName": "Status"
			},
			"DatabaseRecovery": {
				"source":      "DatabaseRecovery",
				"displayName": "Recovery"
			},
			"DatabaseUpdateability": {
				"source":      "DatabaseUpdateability",
				"displayName": "Updateability"
			},
			"DatabaseIsInStandBy": {
				"source":      "DatabaseIsInStandBy",
				"displayName": "StandBy"
			},
			"DatabaseIsAutoClose": {
				"source":      "DatabaseIsAutoClose",
				"displayName": "AutoClose"
			},
			"DatabaseIsAutoShrink": {
				"source":      "DatabaseIsAutoShrink",
				"displayName": "AutoShrink"
			},
			"DatabaseIsAutoCreateStatistics": {
				"source":      "DatabaseIsAutoCreateStatistics",
				"displayName": "AutoCreateStatistics"
			},
			"DatabaseIsAutoUpdateStatistics": {
				"source":      "DatabaseIsAutoUpdateStatistics",
				"displayName": "AutoUpdateStatistics"
			},
			"DatabaseIsPublished": {
				"source":      "DatabaseIsPublished",
				"displayName": "IsPublished"
			},
			"DatabaseIsSubscribed": {
				"source":      "DatabaseIsSubscribed",
				"displayName": "IsSubscribed"
			},
			"DatabaseIsEncrypted": {
				"source":      "DatabaseIsEncrypted",
				"displayName": "IsEncrypted"
			}
		}
	}
}
